<svg viewBox="-21 -138 682.66669 682" xmlns="http://www.w3.org/2000/svg">
    <path d="m602.351562-7.417969h-564.703124c-20.757813 0-37.648438 16.890625-37.648438 37.648438v331.25c0 20.757812 16.890625 37.644531 37.648438 37.644531h410.601562c6.929688 0 12.550781-5.617188 12.550781-12.546875s-5.621093-12.550781-12.550781-12.550781h-410.601562c-6.921876 0-12.550782-5.628906-12.550782-12.546875v-331.25c0-6.917969 5.628906-12.550781 12.550782-12.550781h564.703124c6.921876 0 12.550782 5.632812 12.550782 12.550781v331.25c0 6.917969-5.628906 12.546875-12.550782 12.546875h-53.710937c-6.925781 0-12.546875 5.621094-12.546875 12.550781s5.621094 12.546875 12.546875 12.546875h53.710937c20.757813 0 37.648438-16.886719 37.648438-37.644531v-331.25c0-20.757813-16.890625-37.648438-37.648438-37.648438zm0 0"/>
    <path d="m99.765625 262.386719v-197.019531c0-6.929688-5.621094-12.550782-12.546875-12.550782-6.9375 0-12.550781 5.621094-12.550781 12.550782v197.019531c0 6.929687 5.613281 12.550781 12.550781 12.550781 6.925781 0 12.546875-5.621094 12.546875-12.550781zm0 0"/>
    <path d="m146.195312 262.386719v-183.214844c0-6.929687-5.617187-12.550781-12.546874-12.550781-6.933594 0-12.550782 5.621094-12.550782 12.550781v183.214844c0 6.929687 5.617188 12.550781 12.550782 12.550781 6.929687 0 12.546874-5.621094 12.546874-12.550781zm0 0"/>
    <path d="m192.625 262.386719v-156.863281c0-6.929688-5.617188-12.550782-12.546875-12.550782s-12.546875 5.621094-12.546875 12.550782v156.863281c0 6.929687 5.617188 12.550781 12.546875 12.550781s12.546875-5.621094 12.546875-12.550781zm0 0"/>
    <path d="m239.058594 262.386719v-197.019531c0-6.929688-5.617188-12.550782-12.550782-12.550782-6.929687 0-12.546874 5.621094-12.546874 12.550782v197.019531c0 6.929687 5.617187 12.550781 12.546874 12.550781 6.933594 0 12.550782-5.621094 12.550782-12.550781zm0 0"/>
    <path d="m285.488281 262.386719v-68.539063c0-6.929687-5.613281-12.546875-12.550781-12.546875-6.925781 0-12.546875 5.617188-12.546875 12.546875v68.539063c0 6.929687 5.621094 12.550781 12.546875 12.550781 6.9375 0 12.550781-5.621094 12.550781-12.550781zm0 0"/>
    <path d="m331.921875 262.386719v-147.714844c0-6.933594-5.617187-12.546875-12.550781-12.546875-6.929688 0-12.550782 5.613281-12.550782 12.546875v147.714844c0 6.929687 5.621094 12.550781 12.550782 12.550781 6.933594 0 12.550781-5.621094 12.550781-12.550781zm0 0"/>
    <path d="m378.355469 262.386719v-197.019531c0-6.929688-5.621094-12.550782-12.550781-12.550782-6.933594 0-12.546876 5.621094-12.546876 12.550782v197.019531c0 6.929687 5.613282 12.550781 12.546876 12.550781 6.929687 0 12.550781-5.621094 12.550781-12.550781zm0 0"/>
    <path d="m424.785156 262.386719v-109.824219c0-6.933594-5.621094-12.546875-12.550781-12.546875s-12.546875 5.613281-12.546875 12.546875v109.824219c0 6.929687 5.617188 12.550781 12.546875 12.550781s12.550781-5.621094 12.550781-12.550781zm0 0"/>
    <path d="m458.667969 74.152344c-6.929688 0-12.550781 5.617187-12.550781 12.546875v175.6875c0 6.929687 5.621093 12.550781 12.550781 12.550781 6.925781 0 12.546875-5.621094 12.546875-12.550781v-175.6875c0-6.929688-5.621094-12.546875-12.546875-12.546875zm0 0"/>
    <path d="m505.097656 102.125c-6.929687 0-12.550781 5.613281-12.550781 12.546875v147.714844c0 6.929687 5.621094 12.550781 12.550781 12.550781 6.933594 0 12.550782-5.621094 12.550782-12.550781v-147.714844c0-6.933594-5.617188-12.546875-12.550782-12.546875zm0 0"/>
    <path d="m564.078125 262.386719v-197.019531c0-6.929688-5.617187-12.550782-12.550781-12.550782-6.925782 0-12.546875 5.621094-12.546875 12.550782v197.019531c0 6.929687 5.621093 12.550781 12.546875 12.550781 6.933594 0 12.550781-5.621094 12.550781-12.550781zm0 0"/>
    <path d="m98.648438 347.085938c1.503906.859374 3.296874 1.296874 5.328124 1.296874 2.023438 0 3.816407-.4375 5.324219-1.296874 1.824219-1.046876 2.789063-2.640626 2.789063-4.621094v-7.019532h1.550781c1.101563 0 2.71875-.433593 4.171875-2.496093 1.023438-1.449219 1.542969-3.070313 1.542969-4.820313 0-1.804687-.429688-3.417968-1.277344-4.796875-1.015625-1.648437-2.550781-2.515625-4.441406-2.515625h-1.550781v-4.09375c0-1.976562-.992188-3.621094-2.804688-4.628906-1.503906-.832031-3.289062-1.261719-5.304688-1.261719-2.023437 0-3.804687.421875-5.308593 1.261719-.207031.113281-.402344.234375-.582031.367188l8.613281-17.273438.054687-.117188c.371094-.890624.542969-1.601562.542969-2.242187 0-1.382813-.53125-3.363281-3.035156-4.945313-1.738281-1.09375-3.445313-1.652343-5.078125-1.652343-3.035156 0-5.410156 1.441406-6.863282 4.191406l-18.433593 35.800781c-.574219 1.0625-.863281 2.160156-.863281 3.265625 0 1.761719.605468 3.265625 1.746093 4.34375 1.128907 1.070313 2.574219 1.609375 4.289063 1.609375h16.804687v7.023438c0 1.984375.964844 3.582031 2.785157 4.621094zm-4.734376-26.269532 1.949219-3.902344v3.902344zm0 0"/>
    <path d="m138.3125 344.035156c3.839844 3.203125 9.113281 4.828125 15.65625 4.828125 6.230469 0 11.367188-1.652343 15.269531-4.914062 4-3.34375 6.027344-8.503907 6.027344-15.339844v-1.519531c0-6.644532-2.03125-11.605469-6.039063-14.742188-3.867187-3.015625-9.050781-4.550781-15.414062-4.550781h-3.164062l.519531-6.9375h15.742187c1.253906 0 3.007813-.433594 4.253906-2.507813.808594-1.359374 1.222657-2.976562 1.222657-4.800781 0-1.832031-.414063-3.449219-1.222657-4.804687-1.246093-2.074219-3-2.511719-4.253906-2.511719h-25.480468c-1.609376 0-3.632813.957031-4.105469 5.519531l-2.160157 20.15625c-.109374 1.226563-.167968 2.039063-.167968 2.484375 0 2.0625.519531 3.695313 1.542968 4.867188 1.085938 1.257812 2.816407 1.886719 5.132813 1.886719h12.140625c1.714844 0 2.984375.453124 3.875 1.375.898438.9375 1.351562 2.476562 1.351562 4.570312v1.515625c0 4-1.5625 5.625-5.386718 5.625-1.644532 0-2.980469-.324219-3.964844-.972656-.773438-.503907-1.101562-1.109375-1.101562-2.015625 0-2.011719-.609376-3.625-1.8125-4.785156-1.21875-1.175782-3.21875-1.730469-6.300782-1.730469-2.523437 0-4.425781.519531-5.820312 1.589843-1.519532 1.171876-2.292969 3.125-2.292969 5.804688.003906 4.613281 2 8.617188 5.953125 11.910156zm0 0"/>
    <path d="m213.871094 300.859375c1.601562 0 2.933594.324219 3.960937.957031.972657.605469 1.105469 1.246094 1.105469 1.792969 0 2.402344 1.085938 6.433594 8.351562 6.433594 2.550782 0 4.40625-.5 5.671876-1.546875 1.355468-1.117188 2.039062-2.917969 2.039062-5.367188 0-4.34375-1.800781-8.292968-5.367188-11.738281-3.539062-3.421875-8.710937-5.160156-15.359374-5.160156-6.597657 0-11.984376 1.679687-16.011719 4.980469-4.140625 3.398437-6.238281 8.695312-6.238281 15.753906v21.164062c0 7.042969 2.023437 12.335938 6.015624 15.730469 3.894532 3.320313 9.117188 5 15.515626 5 6.34375 0 11.53125-1.679687 15.433593-5 3.988281-3.394531 6.015625-8.6875 6.015625-15.730469v-.714844c0-6.515624-1.769531-11.324218-5.253906-14.292968-3.398438-2.894532-7.910156-4.367188-13.402344-4.367188-3.203125 0-5.910156.558594-8.101562 1.660156v-3.449218c0-4.277344 1.679687-6.105469 5.625-6.105469zm4.910156 28.402344c0 5.507812-2.644531 6.25-5.230469 6.25-2.621093 0-5.304687-.742188-5.304687-6.25v-1.476563c0-4.035156 1.515625-5.679687 5.226562-5.679687 2.625 0 5.308594.761719 5.308594 6.414062zm0 0"/>
    <path d="m260.65625 347.152344c1.492188.816406 3.273438 1.230468 5.289062 1.230468 2.015626 0 3.789063-.414062 5.289063-1.230468 1.816406-.984375 2.824219-2.582032 2.824219-4.484375v-50.796875c0-1.230469-.445313-2.988282-2.574219-4.375-1.449219-.941406-3.070313-1.421875-4.820313-1.421875-1.316406 0-2.4375.289062-3.289062.832031l-10.523438 6.375c-2.125 1.246094-3.246093 3.273438-3.246093 5.855469 0 1.6875.503906 3.21875 1.484375 4.550781 1.101562 1.492188 2.589844 2.285156 4.308594 2.285156.855468 0 1.679687-.207031 2.433593-.589844v37.285157c0 1.90625 1 3.5 2.824219 4.484375zm0 0"/>
    <path d="m317.289062 333.15625c-.492187.492188-1.644531 1.078125-4.34375 1.078125-5.1875 0-5.1875-1.929687-5.1875-2.75 0-2.730469-1.160156-4.105469-2.136718-4.785156-1.238282-.847657-3.199219-1.25-6.175782-1.25-2.730468 0-4.566406.425781-5.78125 1.332031-1.359374 1.011719-2.046874 2.726562-2.046874 5.105469 0 4.398437 1.8125 8.378906 5.378906 11.816406 3.550781 3.425781 8.785156 5.160156 15.550781 5.160156 6.46875 0 11.78125-1.617187 15.796875-4.800781 4.152344-3.289062 6.25-8.378906 6.25-15.132812v-1.515626c0-5.378906-2.171875-9.484374-6.328125-12.046874 1.023437-1.019532 1.886719-2.296876 2.59375-3.8125 1.207031-2.613282 1.820313-5.597657 1.820313-8.867188 0-7.507812-3.421876-16.453125-19.730469-16.453125-6.722657 0-11.816407 1.648437-15.128907 4.890625-3.320312 3.253906-5.003906 7.054688-5.003906 11.289062 0 2.625.597656 4.414063 1.824219 5.460938 1.171875 1.007812 3.195313 1.453125 6.574219 1.453125 2.695312 0 4.601562-.523437 5.824218-1.609375 1.277344-1.125 1.921876-2.722656 1.921876-4.738281 0-1.160157.398437-1.414063.550781-1.511719.363281-.222656 1.289062-.609375 3.4375-.609375 2.871093 0 3.988281 1.066406 3.988281 3.800781 0 1.300782-.136719 2.347656-.410156 3.117188-.128906.371094-.355469.859375-.699219 1.0625-.476563.285156-.925781.476562-1.332031.558594-.46875.109374-1.09375.15625-1.855469.15625-1.632813 0-5.449219.652343-5.449219 6.675781 0 6.027343 3.804688 6.675781 5.441406 6.675781 2.09375 0 3.648438.332031 4.625.992188.921876.628906 1.117188 2.253906 1.117188 3.515624v1.511719c0 2.054688-.375 3.515625-1.085938 4.230469zm0 0"/>
    <path d="m351.117188 329.679688v.949218c0 6.210938 2.070312 10.890625 6.15625 13.898438 3.90625 2.875 9.078124 4.335937 15.375 4.335937 6.292968 0 11.453124-1.460937 15.335937-4.339843 4.054687-3.007813 6.113281-7.683594 6.113281-13.894532v-.949218c0-7.023438-2.496094-12.058594-7.433594-15.027344 2.976563-2.140625 5.515626-5.886719 5.515626-12.429688 0-5.367187-1.859376-9.449218-5.519532-12.140625-3.488281-2.550781-8.199218-3.851562-14.011718-3.851562-5.816407 0-10.535157 1.300781-14.015626 3.851562-3.664062 2.691407-5.515624 6.773438-5.515624 12.140625 0 6.53125 2.53125 10.277344 5.5 12.421875-4.980469 2.96875-7.5 8.007813-7.5 15.035157zm16.222656-2.253907c0-4.121093 1.589844-5.878906 5.308594-5.878906 3.660156 0 5.222656 1.757813 5.222656 5.878906v1.796875c0 5.542969-2.640625 6.289063-5.222656 6.289063-2.625 0-5.308594-.746094-5.308594-6.289063zm5.308594-19.226562c-2.277344 0-3.789063-.726563-3.789063-4.269531 0-3.605469 1.511719-4.34375 3.789063-4.34375 2.273437 0 3.789062.738281 3.789062 4.34375 0 3.542968-1.515625 4.269531-3.789062 4.269531zm0 0"/>
    <path d="m432.226562 334.234375c-1.605468 0-2.9375-.324219-3.960937-.957031-.976563-.601563-1.101563-1.246094-1.101563-1.792969 0-2.402344-1.089843-6.433594-8.355468-6.433594-2.550782 0-4.402344.507813-5.667969 1.546875-1.351563 1.117188-2.042969 2.925782-2.042969 5.367188 0 4.34375 1.808594 8.292968 5.367188 11.738281 3.539062 3.421875 8.710937 5.160156 15.363281 5.160156 6.59375 0 11.980469-1.675781 16.007813-4.980469 4.140624-3.398437 6.242187-8.695312 6.242187-15.753906v-21.164062c0-7.042969-2.023437-12.335938-6.015625-15.730469-3.902344-3.320313-9.121094-5-15.515625-5-6.34375 0-11.535156 1.679687-15.4375 5-3.988281 3.394531-6.011719 8.6875-6.011719 15.730469v.722656c0 6.511719 1.769532 11.316406 5.253906 14.285156 3.394532 2.894532 7.90625 4.367188 13.398438 4.367188 3.203125 0 5.914062-.558594 8.101562-1.660156v3.449218c0 4.277344-1.679687 6.105469-5.625 6.105469zm-4.90625-28.398437c0-5.507813 2.640626-6.253907 5.226563-6.253907 2.625 0 5.304687.746094 5.304687 6.253907v1.480468c0 4.027344-1.515624 5.671875-5.226562 5.671875-2.621094 0-5.304688-.761719-5.304688-6.414062zm0 0"/>
    <path d="m511.179688 345.863281c.953124-1.425781 1.4375-3.066406 1.4375-4.875 0-1.828125-.492188-3.453125-1.46875-4.839843-1.398438-1.976563-3.046876-2.394532-4.191407-2.394532h-18.734375c.285156-.441406.753906-1 1.511719-1.671875 1.652344-1.472656 3.683594-3.003906 6.03125-4.5625 2.46875-1.636719 4.957031-3.464843 7.402344-5.433593 2.570312-2.066407 4.792969-4.648438 6.613281-7.679688 1.878906-3.140625 2.835938-6.535156 2.835938-10.09375 0-5.542969-2.132813-10.015625-6.34375-13.296875-4.0625-3.171875-8.851563-4.78125-14.226563-4.78125-5.234375 0-9.863281 1.542969-13.765625 4.589844-4.039062 3.160156-6.089844 7.410156-6.089844 12.628906 0 7.265625 4.640625 8.347656 7.398438 8.347656 2.371094 0 4.347656-.609375 5.863281-1.816406 2.050781-1.628906 2.484375-3.503906 2.484375-4.789063 0-1.578124.359375-2.691406 1.054688-3.308593.789062-.691407 1.8125-1.027344 3.132812-1.027344 1.5 0 2.546875.363281 3.203125 1.105469.71875.808594 1.0625 1.707031 1.0625 2.746094 0 1.402343-.726563 2.941406-2.15625 4.570312-1.65625 1.882812-3.71875 3.71875-6.148437 5.46875l-7.339844 5.496094c-2.558594 1.921875-4.769532 4.132812-6.574219 6.570312-1.949219 2.621094-2.9375 5.328125-2.9375 8.03125v7.792969c0 1.210937.464844 2.941406 2.679687 4.328125 1.496094.9375 3.058594 1.414062 4.636719 1.414062h28.433594c1.148437 0 2.8125-.4375 4.195313-2.519531zm0 0"/>
    <path d="m566.460938 343.859375c3.964843-3.398437 5.976562-8.6875 5.976562-15.730469v-21.164062c0-7.039063-2.011719-12.332032-5.976562-15.722656-3.878907-3.320313-9.074219-5.007813-15.429688-5.007813-6.289062 0-11.4375 1.6875-15.296875 5.007813-3.957031 3.390624-5.960937 8.683593-5.960937 15.722656v21.164062c0 7.042969 2.003906 12.332032 5.960937 15.722656 3.859375 3.328126 9.011719 5.011719 15.296875 5.011719 6.355469 0 11.550781-1.683593 15.429688-5.003906zm-10.25-15.730469c0 5.382813-2.617188 6.105469-5.179688 6.105469-2.484375 0-5.03125-.722656-5.03125-6.105469v-21.164062c0-5.378906 2.546875-6.105469 5.03125-6.105469 2.5625 0 5.179688.726563 5.179688 6.105469zm0 0"/>
    <path d="m285.460938 140.296875c-1.589844-6.746094-8.347657-10.925781-15.089844-9.339844l-.609375.140625c-6.746094 1.589844-10.929688 8.339844-9.339844 15.089844 1.355469 5.78125 6.511719 9.675781 12.203125 9.675781.949219 0 1.914062-.105469 2.882812-.335937l.609376-.140625c6.742187-1.585938 10.929687-8.339844 9.34375-15.089844zm0 0"/>
    <path d="m497.273438 374.289062-.601563.140626c-6.75 1.582031-10.9375 8.335937-9.363281 15.082031 1.359375 5.785156 6.515625 9.691406 12.207031 9.691406.949219 0 1.914063-.105469 2.875-.335937l.613281-.140626c6.746094-1.582031 10.933594-8.332031 9.355469-15.078124-1.582031-6.753907-8.332031-10.9375-15.085937-9.359376zm0 0"/>
</svg>